<svg xmlns="http://www.w3.org/2000/svg" width="1920" height="1592.97" viewBox="0 0 1920 1592.97">
  <defs>
    <style>
      .cls-1 {
        fill: #f4f9ff;
        fill-rule: evenodd;
      }
    </style>
  </defs>
  <path id="Shape_5_copy" data-name="Shape 5 copy" class="cls-1" d="M2128,3305s-184.11-189.14-449-209-553,152-553,152-381.086-134-614-4c-217.68,121.5-554.612-92.73-590-268s-80,1412-80,1412,114.335-48.87,332,63,536.987,159.77,954,11c179.79-64.14,327.27,52,584,52s241.36-136.94,429-224S2128,3305,2128,3305Z" transform="translate(0 -2962.5)"/>
</svg>
